tb_shared_ram.vcd
$date
	Mon Mar 30 15:38:17 2026
$end
$version
	Icarus Verilog
$end
$timescale
	1ps
$end
$scope module tb_shared_ram $end
$var wire 1 ! ram_write_enable_dbg $end
$var wire 32 " ram_read_data_dbg [31:0] $end
$var wire 3 # ram_raddr_dbg [2:0] $end
$var wire 32 $ gpu_rdata_cached [31:0] $end
$var wire 32 % cpu_rdata_raw [31:0] $end
$var reg 1 & clk25 $end
$var reg 1 ' clk50 $end
$var reg 1 ( clk50_n $end
$var reg 3 ) cpu_addr [2:0] $end
$var reg 32 * cpu_wdata [31:0] $end
$var reg 1 + cpu_we $end
$var reg 3 , gpu_addr [2:0] $end
$var reg 1 - rst $end
$var integer 32 . cpu_req_time [31:0] $end
$var integer 32 / fail_count [31:0] $end
$var integer 32 0 gpu_req_time [31:0] $end
$var integer 32 1 pass_count [31:0] $end
$scope module dut $end
$var wire 1 & clk25 $end
$var wire 1 ' clk50 $end
$var wire 1 ( clk50_n $end
$var wire 3 2 cpu_addr [2:0] $end
$var wire 32 3 cpu_rdata_raw [31:0] $end
$var wire 32 4 cpu_wdata [31:0] $end
$var wire 1 + cpu_we $end
$var wire 3 5 gpu_addr [2:0] $end
$var wire 3 6 ram_raddr_dbg [2:0] $end
$var wire 32 7 ram_read_data_dbg [31:0] $end
$var wire 1 8 ram_we $end
$var wire 1 ! ram_write_enable_dbg $end
$var wire 1 - rst $end
$var wire 1 9 same_phase $end
$var wire 32 : ram_rdata [31:0] $end
$var wire 3 ; ram_raddr [2:0] $end
$var wire 32 < gpu_rdata_cached [31:0] $end
$var reg 1 = en_gpu $end
$scope module gpu_cache_u $end
$var wire 1 ( clk $end
$var wire 1 = en $end
$var wire 1 - rst $end
$var wire 32 > d [31:0] $end
$var parameter 32 ? RESET_VALUE $end
$var parameter 32 @ W $end
$var reg 32 A q [31:0] $end
$upscope $end
$scope module ram_u $end
$var wire 3 B raddr [2:0] $end
$var wire 1 ' rclk $end
$var wire 3 C waddr [2:0] $end
$var wire 1 ' wclk $end
$var wire 32 D write_data [31:0] $end
$var wire 1 8 write_enable $end
$var parameter 32 E ENTRIES $end
$var parameter 32 F WIDTH $end
$var reg 32 G read_data [31:0] $end
$upscope $end
$upscope $end
$scope task check_cpu $end
$var reg 3 H addr [2:0] $end
$var reg 32 I expected [31:0] $end
$upscope $end
$scope task check_gpu $end
$var reg 3 J addr [2:0] $end
$var reg 32 K expected [31:0] $end
$upscope $end
$scope task check_gpu_held $end
$var reg 3 L addr [2:0] $end
$var reg 32 M expected [31:0] $end
$var integer 32 N slot [31:0] $end
$upscope $end
$scope task cpu_idle $end
$upscope $end
$scope task cpu_read $end
$var reg 3 O addr [2:0] $end
$upscope $end
$scope task cpu_write $end
$var reg 3 P addr [2:0] $end
$var reg 32 Q data [31:0] $end
$upscope $end
$scope task gpu_read $end
$var reg 3 R addr [2:0] $end
$upscope $end
$upscope $end
$enddefinitions $end
$comment Show the parameter values. $end
$dumpall
b100000 F
b1000 E
b100000 @
b0 ?
$end
#0
$dumpvars
bx R
bx Q
bx P
bx O
bx N
bx M
bx L
bx K
bx J
bx I
bx H
bx G
b0 D
b0 C
b0 B
b0 A
bx >
x=
b0 <
b0 ;
bx :
09
08
bx 7
b0 6
b0 5
b0 4
bx 3
b0 2
b0 1
b0 0
b0 /
b0 .
1-
b0 ,
0+
b0 *
b0 )
1(
0'
0&
bx %
b0 $
b0 #
bx "
0!
$end
#5000
0-
#10000
1=
0(
1'
#20000
bx $
bx <
bx A
1(
0'
#30000
0(
1'
#40000
1(
0'
1&
#50000
0=
0(
1'
#60000
1(
0'
0&
#70000
1=
0(
1'
#80000
b1 #
b1 6
b1 ;
b1 B
1!
18
1+
b10101010101010100001000100010001 *
b10101010101010100001000100010001 4
b10101010101010100001000100010001 D
b1 )
b1 2
b1 C
b10101010101010100001000100010001 Q
b1 P
1(
0'
1&
#90000
0=
0(
1'
#100000
b0 #
b0 6
b0 ;
b0 B
0!
08
0+
1(
0'
0&
#110000
1=
0(
1'
#120000
b10 #
b10 6
b10 ;
b10 B
1!
18
1+
b10111011101110110010001000100010 *
b10111011101110110010001000100010 4
b10111011101110110010001000100010 D
b10 )
b10 2
b10 C
b10111011101110110010001000100010 Q
b10 P
1(
0'
1&
#130000
0=
0(
1'
#140000
b0 #
b0 6
b0 ;
b0 B
0!
08
0+
1(
0'
0&
#150000
1=
0(
1'
#160000
b11 #
b11 6
b11 ;
b11 B
1!
18
1+
b11001100110011000011001100110011 *
b11001100110011000011001100110011 4
b11001100110011000011001100110011 D
b11 )
b11 2
b11 C
b11001100110011000011001100110011 Q
b11 P
1(
0'
1&
#170000
0=
0(
1'
#180000
b0 #
b0 6
b0 ;
b0 B
0!
08
0+
1(
0'
0&
#190000
1=
0(
1'
#200000
b100 #
b100 6
b100 ;
b100 B
1!
18
1+
b11011101110111010100010001000100 *
b11011101110111010100010001000100 4
b11011101110111010100010001000100 D
b100 )
b100 2
b100 C
b11011101110111010100010001000100 Q
b100 P
1(
0'
1&
#210000
0=
0(
1'
#220000
b0 #
b0 6
b0 ;
b0 B
0!
08
0+
1(
0'
0&
#230000
1=
0(
1'
#240000
b100 #
b100 6
b100 ;
b100 B
1(
0'
1&
#250000
b11011101110111010100010001000100 "
b11011101110111010100010001000100 7
b11011101110111010100010001000100 %
b11011101110111010100010001000100 3
b11011101110111010100010001000100 :
b11011101110111010100010001000100 >
b11011101110111010100010001000100 G
0=
0(
1'
#260000
b1 #
b1 6
b1 ;
b1 B
b100000100 0
b1 ,
b1 5
b1 R
1(
0'
0&
#270000
1=
b10101010101010100001000100010001 "
b10101010101010100001000100010001 7
b10101010101010100001000100010001 %
b10101010101010100001000100010001 3
b10101010101010100001000100010001 :
b10101010101010100001000100010001 >
b10101010101010100001000100010001 G
0(
1'
#280000
b10101010101010100001000100010001 $
b10101010101010100001000100010001 <
b10101010101010100001000100010001 A
b100 #
b100 6
b100 ;
b100 B
1(
0'
1&
#281000
b1 1
b10101010101010100001000100010001 K
b1 J
#290000
b11011101110111010100010001000100 "
b11011101110111010100010001000100 7
b11011101110111010100010001000100 %
b11011101110111010100010001000100 3
b11011101110111010100010001000100 :
b11011101110111010100010001000100 >
b11011101110111010100010001000100 G
0=
0(
1'
#300000
b10 #
b10 6
b10 ;
b10 B
b100101100 0
b10 ,
b10 5
b10 R
1(
0'
0&
#310000
1=
b10111011101110110010001000100010 "
b10111011101110110010001000100010 7
b10111011101110110010001000100010 %
b10111011101110110010001000100010 3
b10111011101110110010001000100010 :
b10111011101110110010001000100010 >
b10111011101110110010001000100010 G
0(
1'
#320000
b10111011101110110010001000100010 $
b10111011101110110010001000100010 <
b10111011101110110010001000100010 A
b100 #
b100 6
b100 ;
b100 B
1(
0'
1&
#321000
b10 1
b10111011101110110010001000100010 K
b10 J
#330000
b11011101110111010100010001000100 "
b11011101110111010100010001000100 7
b11011101110111010100010001000100 %
b11011101110111010100010001000100 3
b11011101110111010100010001000100 :
b11011101110111010100010001000100 >
b11011101110111010100010001000100 G
0=
0(
1'
#340000
b11 #
b11 6
b11 ;
b11 B
b101010100 0
b11 ,
b11 5
b11 R
1(
0'
0&
#350000
1=
b11001100110011000011001100110011 "
b11001100110011000011001100110011 7
b11001100110011000011001100110011 %
b11001100110011000011001100110011 3
b11001100110011000011001100110011 :
b11001100110011000011001100110011 >
b11001100110011000011001100110011 G
0(
1'
#360000
b11001100110011000011001100110011 $
b11001100110011000011001100110011 <
b11001100110011000011001100110011 A
b100 #
b100 6
b100 ;
b100 B
1(
0'
1&
#361000
b11 1
b11001100110011000011001100110011 K
b11 J
#370000
b11011101110111010100010001000100 "
b11011101110111010100010001000100 7
b11011101110111010100010001000100 %
b11011101110111010100010001000100 3
b11011101110111010100010001000100 :
b11011101110111010100010001000100 >
b11011101110111010100010001000100 G
0=
0(
1'
#380000
b101111100 0
b100 ,
b100 5
b100 R
1(
0'
0&
#390000
1=
0(
1'
#400000
b11011101110111010100010001000100 $
b11011101110111010100010001000100 <
b11011101110111010100010001000100 A
1(
0'
1&
#401000
b100 1
b11011101110111010100010001000100 K
b100 J
#410000
0=
0(
1'
#420000
1(
0'
0&
#430000
1=
0(
1'
#440000
b11 #
b11 6
b11 ;
b11 B
1!
18
1+
b11011110101011011011111011101111 *
b11011110101011011011111011101111 4
b11011110101011011011111011101111 D
b11 )
b11 2
b11 C
b11011110101011011011111011101111 Q
b11 P
1(
0'
1&
#450000
b11001100110011000011001100110011 "
b11001100110011000011001100110011 7
b11001100110011000011001100110011 %
b11001100110011000011001100110011 3
b11001100110011000011001100110011 :
b11001100110011000011001100110011 >
b11001100110011000011001100110011 G
0=
0(
1'
#460000
b111001100 0
b11 ,
b11 5
b11 R
0!
08
0+
1(
0'
0&
#470000
1=
b11011110101011011011111011101111 "
b11011110101011011011111011101111 7
b11011110101011011011111011101111 %
b11011110101011011011111011101111 3
b11011110101011011011111011101111 :
b11011110101011011011111011101111 >
b11011110101011011011111011101111 G
0(
1'
#480000
b11011110101011011011111011101111 $
b11011110101011011011111011101111 <
b11011110101011011011111011101111 A
1(
0'
1&
#481000
b101 1
b11011110101011011011111011101111 K
b11 J
#490000
0=
0(
1'
#500000
1(
0'
0&
#510000
1=
0(
1'
#520000
b101 #
b101 6
b101 ;
b101 B
1!
18
1+
b11111110111011010101010101010101 *
b11111110111011010101010101010101 4
b11111110111011010101010101010101 D
b101 )
b101 2
b101 C
b11111110111011010101010101010101 Q
b101 P
1(
0'
1&
#530000
bx "
bx 7
bx %
bx 3
bx :
bx >
bx G
0=
0(
1'
#540000
b1000011100 0
b101 ,
b101 5
b101 R
0!
08
0+
1(
0'
0&
#550000
1=
b11111110111011010101010101010101 "
b11111110111011010101010101010101 7
b11111110111011010101010101010101 %
b11111110111011010101010101010101 3
b11111110111011010101010101010101 :
b11111110111011010101010101010101 >
b11111110111011010101010101010101 G
0(
1'
#560000
b11111110111011010101010101010101 $
b11111110111011010101010101010101 <
b11111110111011010101010101010101 A
1(
0'
1&
#561000
b110 1
b11111110111011010101010101010101 K
b101 J
#570000
0=
0(
1'
#580000
1(
0'
0&
#590000
1=
0(
1'
#600000
b110 #
b110 6
b110 ;
b110 B
1!
18
1+
b1100110011001100000000000000000 *
b1100110011001100000000000000000 4
b1100110011001100000000000000000 D
b110 )
b110 2
b110 C
b1100110011001100000000000000000 Q
b110 P
1(
0'
1&
#610000
bx "
bx 7
bx %
bx 3
bx :
bx >
bx G
0=
0(
1'
#620000
b101 #
b101 6
b101 ;
b101 B
b1001101100 0
0!
08
0+
1(
0'
0&
#630000
1=
b11111110111011010101010101010101 "
b11111110111011010101010101010101 7
b11111110111011010101010101010101 %
b11111110111011010101010101010101 3
b11111110111011010101010101010101 :
b11111110111011010101010101010101 >
b11111110111011010101010101010101 G
0(
1'
#640000
b110 #
b110 6
b110 ;
b110 B
1(
0'
1&
#641000
b111 1
#650000
b1100110011001100000000000000000 "
b1100110011001100000000000000000 7
b1100110011001100000000000000000 %
b1100110011001100000000000000000 3
b1100110011001100000000000000000 :
b1100110011001100000000000000000 >
b1100110011001100000000000000000 G
0=
0(
1'
#660000
b101 #
b101 6
b101 ;
b101 B
1(
0'
0&
#670000
1=
b11111110111011010101010101010101 "
b11111110111011010101010101010101 7
b11111110111011010101010101010101 %
b11111110111011010101010101010101 3
b11111110111011010101010101010101 :
b11111110111011010101010101010101 >
b11111110111011010101010101010101 G
0(
1'
#680000
b111 #
b111 6
b111 ;
b111 B
1!
18
1+
b1110111011101110111011101110111 *
b1110111011101110111011101110111 4
b1110111011101110111011101110111 D
b111 )
b111 2
b111 C
b1110111011101110111011101110111 Q
b111 P
1(
0'
1&
#690000
bx "
bx 7
bx %
bx 3
bx :
bx >
bx G
0=
0(
1'
#700000
b10 #
b10 6
b10 ;
b10 B
b1010111100 0
b10 ,
b10 5
b10 R
0!
08
0+
1(
0'
0&
#710000
1=
b10111011101110110010001000100010 "
b10111011101110110010001000100010 7
b10111011101110110010001000100010 %
b10111011101110110010001000100010 3
b10111011101110110010001000100010 :
b10111011101110110010001000100010 >
b10111011101110110010001000100010 G
0(
1'
#720000
b10111011101110110010001000100010 $
b10111011101110110010001000100010 <
b10111011101110110010001000100010 A
b111 #
b111 6
b111 ;
b111 B
1(
0'
1&
#721000
b1000 1
b10111011101110110010001000100010 K
b10 J
#730000
b1110111011101110111011101110111 "
b1110111011101110111011101110111 7
b1110111011101110111011101110111 %
b1110111011101110111011101110111 3
b1110111011101110111011101110111 :
b1110111011101110111011101110111 >
b1110111011101110111011101110111 G
0=
0(
1'
#740000
b10 #
b10 6
b10 ;
b10 B
1(
0'
0&
#750000
1=
b10111011101110110010001000100010 "
b10111011101110110010001000100010 7
b10111011101110110010001000100010 %
b10111011101110110010001000100010 3
b10111011101110110010001000100010 :
b10111011101110110010001000100010 >
b10111011101110110010001000100010 G
0(
1'
#760000
b111 #
b111 6
b111 ;
b111 B
1(
0'
1&
#770000
b1110111011101110111011101110111 "
b1110111011101110111011101110111 7
b1110111011101110111011101110111 %
b1110111011101110111011101110111 3
b1110111011101110111011101110111 :
b1110111011101110111011101110111 >
b1110111011101110111011101110111 G
0=
0(
1'
#780000
b1100001100 0
b111 ,
b111 5
b111 R
1(
0'
0&
#790000
1=
0(
1'
#800000
b1110111011101110111011101110111 $
b1110111011101110111011101110111 <
b1110111011101110111011101110111 A
1(
0'
1&
#801000
b1001 1
b1110111011101110111011101110111 K
b111 J
#810000
0=
0(
1'
#820000
1(
0'
0&
#830000
1=
0(
1'
#840000
b1 #
b1 6
b1 ;
b1 B
b1101001000 .
b1 )
b1 2
b1 C
b1 O
1(
0'
1&
#850000
b10101010101010100001000100010001 "
b10101010101010100001000100010001 7
b10101010101010100001000100010001 %
b10101010101010100001000100010001 3
b10101010101010100001000100010001 :
b10101010101010100001000100010001 >
b10101010101010100001000100010001 G
0=
0(
1'
#860000
b1101011100 0
b1 ,
b1 5
b1 R
b1010 1
b10101010101010100001000100010001 I
b1 H
1(
0'
0&
#870000
1=
0(
1'
#880000
b10101010101010100001000100010001 $
b10101010101010100001000100010001 <
b10101010101010100001000100010001 A
1(
0'
1&
#881000
b1011 1
b10101010101010100001000100010001 K
b1 J
#890000
0=
0(
1'
#900000
1(
0'
0&
#910000
1=
0(
1'
#920000
b11 #
b11 6
b11 ;
b11 B
b1110011000 .
b11 )
b11 2
b11 C
b11 O
1(
0'
1&
#930000
b11011110101011011011111011101111 "
b11011110101011011011111011101111 7
b11011110101011011011111011101111 %
b11011110101011011011111011101111 3
b11011110101011011011111011101111 :
b11011110101011011011111011101111 >
b11011110101011011011111011101111 G
0=
0(
1'
#940000
b1110101100 0
b11 ,
b11 5
b11 R
b1100 1
b11011110101011011011111011101111 I
b11 H
1(
0'
0&
#950000
1=
0(
1'
#960000
b11011110101011011011111011101111 $
b11011110101011011011111011101111 <
b11011110101011011011111011101111 A
1(
0'
1&
#961000
b1101 1
b11011110101011011011111011101111 K
b11 J
#970000
0=
0(
1'
#980000
1(
0'
0&
#990000
1=
0(
1'
#1000000
b110 #
b110 6
b110 ;
b110 B
b1111101000 .
b110 )
b110 2
b110 C
b110 O
1(
0'
1&
#1010000
b1100110011001100000000000000000 "
b1100110011001100000000000000000 7
b1100110011001100000000000000000 %
b1100110011001100000000000000000 3
b1100110011001100000000000000000 :
b1100110011001100000000000000000 >
b1100110011001100000000000000000 G
0=
0(
1'
#1020000
b1111111100 0
b110 ,
b110 5
b110 R
b1110 1
b1100110011001100000000000000000 I
b110 H
1(
0'
0&
#1030000
1=
0(
1'
#1040000
b1100110011001100000000000000000 $
b1100110011001100000000000000000 <
b1100110011001100000000000000000 A
1(
0'
1&
#1041000
b1111 1
b1100110011001100000000000000000 K
b110 J
#1050000
0=
0(
1'
#1060000
1(
0'
0&
#1070000
1=
0(
1'
#1080000
b111 #
b111 6
b111 ;
b111 B
b10000111000 .
b111 )
b111 2
b111 C
b111 O
1(
0'
1&
#1090000
b1110111011101110111011101110111 "
b1110111011101110111011101110111 7
b1110111011101110111011101110111 %
b1110111011101110111011101110111 3
b1110111011101110111011101110111 :
b1110111011101110111011101110111 >
b1110111011101110111011101110111 G
0=
0(
1'
#1100000
b10001001100 0
b111 ,
b111 5
b111 R
b10000 1
b1110111011101110111011101110111 I
b111 H
1(
0'
0&
#1110000
1=
0(
1'
#1120000
b1110111011101110111011101110111 $
b1110111011101110111011101110111 <
b1110111011101110111011101110111 A
1(
0'
1&
#1121000
b10001 1
b1110111011101110111011101110111 K
b111 J
#1130000
0=
0(
1'
#1140000
1(
0'
0&
#1150000
1=
0(
1'
#1160000
b1 #
b1 6
b1 ;
b1 B
b10010001000 .
b1 )
b1 2
b1 C
b1 O
1(
0'
1&
#1170000
b10101010101010100001000100010001 "
b10101010101010100001000100010001 7
b10101010101010100001000100010001 %
b10101010101010100001000100010001 3
b10101010101010100001000100010001 :
b10101010101010100001000100010001 >
b10101010101010100001000100010001 G
0=
0(
1'
#1180000
b100 #
b100 6
b100 ;
b100 B
b10010011100 0
b100 ,
b100 5
b100 R
b10010 1
b10101010101010100001000100010001 I
b1 H
1(
0'
0&
#1190000
1=
b11011101110111010100010001000100 "
b11011101110111010100010001000100 7
b11011101110111010100010001000100 %
b11011101110111010100010001000100 3
b11011101110111010100010001000100 :
b11011101110111010100010001000100 >
b11011101110111010100010001000100 G
0(
1'
#1200000
b11011101110111010100010001000100 $
b11011101110111010100010001000100 <
b11011101110111010100010001000100 A
b1 #
b1 6
b1 ;
b1 B
1(
0'
1&
#1201000
b10011 1
b11011101110111010100010001000100 K
b100 J
#1210000
b10101010101010100001000100010001 "
b10101010101010100001000100010001 7
b10101010101010100001000100010001 %
b10101010101010100001000100010001 3
b10101010101010100001000100010001 :
b10101010101010100001000100010001 >
b10101010101010100001000100010001 G
0=
0(
1'
#1220000
b100 #
b100 6
b100 ;
b100 B
1(
0'
0&
#1230000
1=
b11011101110111010100010001000100 "
b11011101110111010100010001000100 7
b11011101110111010100010001000100 %
b11011101110111010100010001000100 3
b11011101110111010100010001000100 :
b11011101110111010100010001000100 >
b11011101110111010100010001000100 G
0(
1'
#1240000
b10 #
b10 6
b10 ;
b10 B
b10011011000 .
b10 )
b10 2
b10 C
b10 O
1(
0'
1&
#1250000
b10111011101110110010001000100010 "
b10111011101110110010001000100010 7
b10111011101110110010001000100010 %
b10111011101110110010001000100010 3
b10111011101110110010001000100010 :
b10111011101110110010001000100010 >
b10111011101110110010001000100010 G
0=
0(
1'
#1260000
b111 #
b111 6
b111 ;
b111 B
b10011101100 0
b111 ,
b111 5
b111 R
b10100 1
b10111011101110110010001000100010 I
b10 H
1(
0'
0&
#1270000
1=
b1110111011101110111011101110111 "
b1110111011101110111011101110111 7
b1110111011101110111011101110111 %
b1110111011101110111011101110111 3
b1110111011101110111011101110111 :
b1110111011101110111011101110111 >
b1110111011101110111011101110111 G
0(
1'
#1280000
b1110111011101110111011101110111 $
b1110111011101110111011101110111 <
b1110111011101110111011101110111 A
b10 #
b10 6
b10 ;
b10 B
1(
0'
1&
#1281000
b10101 1
b1110111011101110111011101110111 K
b111 J
#1290000
b10111011101110110010001000100010 "
b10111011101110110010001000100010 7
b10111011101110110010001000100010 %
b10111011101110110010001000100010 3
b10111011101110110010001000100010 :
b10111011101110110010001000100010 >
b10111011101110110010001000100010 G
0=
0(
1'
#1300000
b111 #
b111 6
b111 ;
b111 B
1(
0'
0&
#1310000
1=
b1110111011101110111011101110111 "
b1110111011101110111011101110111 7
b1110111011101110111011101110111 %
b1110111011101110111011101110111 3
b1110111011101110111011101110111 :
b1110111011101110111011101110111 >
b1110111011101110111011101110111 G
0(
1'
#1320000
b101 #
b101 6
b101 ;
b101 B
b10100101000 .
b101 )
b101 2
b101 C
b101 O
1(
0'
1&
#1330000
b11111110111011010101010101010101 "
b11111110111011010101010101010101 7
b11111110111011010101010101010101 %
b11111110111011010101010101010101 3
b11111110111011010101010101010101 :
b11111110111011010101010101010101 >
b11111110111011010101010101010101 G
0=
0(
1'
#1340000
b11 #
b11 6
b11 ;
b11 B
b10100111100 0
b11 ,
b11 5
b11 R
b10110 1
b11111110111011010101010101010101 I
b101 H
1(
0'
0&
#1350000
1=
b11011110101011011011111011101111 "
b11011110101011011011111011101111 7
b11011110101011011011111011101111 %
b11011110101011011011111011101111 3
b11011110101011011011111011101111 :
b11011110101011011011111011101111 >
b11011110101011011011111011101111 G
0(
1'
#1360000
b11011110101011011011111011101111 $
b11011110101011011011111011101111 <
b11011110101011011011111011101111 A
b101 #
b101 6
b101 ;
b101 B
1(
0'
1&
#1361000
b10111 1
b11011110101011011011111011101111 K
b11 J
#1370000
b11111110111011010101010101010101 "
b11111110111011010101010101010101 7
b11111110111011010101010101010101 %
b11111110111011010101010101010101 3
b11111110111011010101010101010101 :
b11111110111011010101010101010101 >
b11111110111011010101010101010101 G
0=
0(
1'
#1380000
b11 #
b11 6
b11 ;
b11 B
1(
0'
0&
#1390000
1=
b11011110101011011011111011101111 "
b11011110101011011011111011101111 7
b11011110101011011011111011101111 %
b11011110101011011011111011101111 3
b11011110101011011011111011101111 :
b11011110101011011011111011101111 >
b11011110101011011011111011101111 G
0(
1'
#1400000
b110 #
b110 6
b110 ;
b110 B
b10101111000 .
b110 )
b110 2
b110 C
b110 O
1(
0'
1&
#1410000
b1100110011001100000000000000000 "
b1100110011001100000000000000000 7
b1100110011001100000000000000000 %
b1100110011001100000000000000000 3
b1100110011001100000000000000000 :
b1100110011001100000000000000000 >
b1100110011001100000000000000000 G
0=
0(
1'
#1420000
b1 #
b1 6
b1 ;
b1 B
b10110001100 0
b1 ,
b1 5
b1 R
b11000 1
b1100110011001100000000000000000 I
b110 H
1(
0'
0&
#1430000
1=
b10101010101010100001000100010001 "
b10101010101010100001000100010001 7
b10101010101010100001000100010001 %
b10101010101010100001000100010001 3
b10101010101010100001000100010001 :
b10101010101010100001000100010001 >
b10101010101010100001000100010001 G
0(
1'
#1440000
b10101010101010100001000100010001 $
b10101010101010100001000100010001 <
b10101010101010100001000100010001 A
b110 #
b110 6
b110 ;
b110 B
1(
0'
1&
#1441000
b11001 1
b10101010101010100001000100010001 K
b1 J
#1450000
b1100110011001100000000000000000 "
b1100110011001100000000000000000 7
b1100110011001100000000000000000 %
b1100110011001100000000000000000 3
b1100110011001100000000000000000 :
b1100110011001100000000000000000 >
b1100110011001100000000000000000 G
0=
0(
1'
#1460000
b1 #
b1 6
b1 ;
b1 B
1(
0'
0&
#1470000
1=
b10101010101010100001000100010001 "
b10101010101010100001000100010001 7
b10101010101010100001000100010001 %
b10101010101010100001000100010001 3
b10101010101010100001000100010001 :
b10101010101010100001000100010001 >
b10101010101010100001000100010001 G
0(
1'
#1480000
b111 #
b111 6
b111 ;
b111 B
b10111001000 .
b111 )
b111 2
b111 C
b111 O
1(
0'
1&
#1490000
b1110111011101110111011101110111 "
b1110111011101110111011101110111 7
b1110111011101110111011101110111 %
b1110111011101110111011101110111 3
b1110111011101110111011101110111 :
b1110111011101110111011101110111 >
b1110111011101110111011101110111 G
0=
0(
1'
#1500000
b110 #
b110 6
b110 ;
b110 B
b10111011100 0
b110 ,
b110 5
b110 R
b11010 1
b1110111011101110111011101110111 I
b111 H
1(
0'
0&
#1510000
1=
b1100110011001100000000000000000 "
b1100110011001100000000000000000 7
b1100110011001100000000000000000 %
b1100110011001100000000000000000 3
b1100110011001100000000000000000 :
b1100110011001100000000000000000 >
b1100110011001100000000000000000 G
0(
1'
#1520000
b1100110011001100000000000000000 $
b1100110011001100000000000000000 <
b1100110011001100000000000000000 A
b111 #
b111 6
b111 ;
b111 B
1(
0'
1&
#1521000
b11011 1
b1100110011001100000000000000000 K
b110 J
#1530000
b1110111011101110111011101110111 "
b1110111011101110111011101110111 7
b1110111011101110111011101110111 %
b1110111011101110111011101110111 3
b1110111011101110111011101110111 :
b1110111011101110111011101110111 >
b1110111011101110111011101110111 G
0=
0(
1'
#1540000
b110 #
b110 6
b110 ;
b110 B
1(
0'
0&
#1550000
1=
b1100110011001100000000000000000 "
b1100110011001100000000000000000 7
b1100110011001100000000000000000 %
b1100110011001100000000000000000 3
b1100110011001100000000000000000 :
b1100110011001100000000000000000 >
b1100110011001100000000000000000 G
0(
1'
#1560000
b11 #
b11 6
b11 ;
b11 B
b11000011000 .
b11 )
b11 2
b11 C
b11 O
1(
0'
1&
#1570000
b11011110101011011011111011101111 "
b11011110101011011011111011101111 7
b11011110101011011011111011101111 %
b11011110101011011011111011101111 3
b11011110101011011011111011101111 :
b11011110101011011011111011101111 >
b11011110101011011011111011101111 G
0=
0(
1'
#1580000
b101 #
b101 6
b101 ;
b101 B
b11000101100 0
b101 ,
b101 5
b101 R
b11100 1
b11011110101011011011111011101111 I
b11 H
1(
0'
0&
#1590000
1=
b11111110111011010101010101010101 "
b11111110111011010101010101010101 7
b11111110111011010101010101010101 %
b11111110111011010101010101010101 3
b11111110111011010101010101010101 :
b11111110111011010101010101010101 >
b11111110111011010101010101010101 G
0(
1'
#1600000
b11111110111011010101010101010101 $
b11111110111011010101010101010101 <
b11111110111011010101010101010101 A
b11 #
b11 6
b11 ;
b11 B
1(
0'
1&
#1601000
b11101 1
b11111110111011010101010101010101 K
b101 J
#1610000
b11011110101011011011111011101111 "
b11011110101011011011111011101111 7
b11011110101011011011111011101111 %
b11011110101011011011111011101111 3
b11011110101011011011111011101111 :
b11011110101011011011111011101111 >
b11011110101011011011111011101111 G
0=
0(
1'
#1620000
b101 #
b101 6
b101 ;
b101 B
1(
0'
0&
#1630000
1=
b11111110111011010101010101010101 "
b11111110111011010101010101010101 7
b11111110111011010101010101010101 %
b11111110111011010101010101010101 3
b11111110111011010101010101010101 :
b11111110111011010101010101010101 >
b11111110111011010101010101010101 G
0(
1'
#1640000
b100 #
b100 6
b100 ;
b100 B
b11001101000 .
b100 )
b100 2
b100 C
b100 O
1(
0'
1&
#1650000
b11011101110111010100010001000100 "
b11011101110111010100010001000100 7
b11011101110111010100010001000100 %
b11011101110111010100010001000100 3
b11011101110111010100010001000100 :
b11011101110111010100010001000100 >
b11011101110111010100010001000100 G
0=
0(
1'
#1660000
b10 #
b10 6
b10 ;
b10 B
b11001111100 0
b10 ,
b10 5
b10 R
b11110 1
b11011101110111010100010001000100 I
b100 H
1(
0'
0&
#1670000
1=
b10111011101110110010001000100010 "
b10111011101110110010001000100010 7
b10111011101110110010001000100010 %
b10111011101110110010001000100010 3
b10111011101110110010001000100010 :
b10111011101110110010001000100010 >
b10111011101110110010001000100010 G
0(
1'
#1680000
b10111011101110110010001000100010 $
b10111011101110110010001000100010 <
b10111011101110110010001000100010 A
b100 #
b100 6
b100 ;
b100 B
1(
0'
1&
#1681000
b11111 1
b10111011101110110010001000100010 K
b10 J
#1690000
b11011101110111010100010001000100 "
b11011101110111010100010001000100 7
b11011101110111010100010001000100 %
b11011101110111010100010001000100 3
b11011101110111010100010001000100 :
b11011101110111010100010001000100 >
b11011101110111010100010001000100 G
0=
0(
1'
#1700000
b10 #
b10 6
b10 ;
b10 B
1(
0'
0&
#1710000
1=
b10111011101110110010001000100010 "
b10111011101110110010001000100010 7
b10111011101110110010001000100010 %
b10111011101110110010001000100010 3
b10111011101110110010001000100010 :
b10111011101110110010001000100010 >
b10111011101110110010001000100010 G
0(
1'
#1720000
b100 #
b100 6
b100 ;
b100 B
1(
0'
1&
#1730000
b11011101110111010100010001000100 "
b11011101110111010100010001000100 7
b11011101110111010100010001000100 %
b11011101110111010100010001000100 3
b11011101110111010100010001000100 :
b11011101110111010100010001000100 >
b11011101110111010100010001000100 G
0=
0(
1'
#1740000
b1 #
b1 6
b1 ;
b1 B
b11011001100 0
b1 ,
b1 5
b1 R
1(
0'
0&
#1750000
1=
b10101010101010100001000100010001 "
b10101010101010100001000100010001 7
b10101010101010100001000100010001 %
b10101010101010100001000100010001 3
b10101010101010100001000100010001 :
b10101010101010100001000100010001 >
b10101010101010100001000100010001 G
0(
1'
#1760000
b10101010101010100001000100010001 $
b10101010101010100001000100010001 <
b10101010101010100001000100010001 A
b100 #
b100 6
b100 ;
b100 B
1(
0'
1&
#1761000
b100000 1
b10101010101010100001000100010001 K
b1 J
#1770000
b11011101110111010100010001000100 "
b11011101110111010100010001000100 7
b11011101110111010100010001000100 %
b11011101110111010100010001000100 3
b11011101110111010100010001000100 :
b11011101110111010100010001000100 >
b11011101110111010100010001000100 G
0=
0(
1'
#1780000
b1 #
b1 6
b1 ;
b1 B
1(
0'
0&
#1790000
1=
b10101010101010100001000100010001 "
b10101010101010100001000100010001 7
b10101010101010100001000100010001 %
b10101010101010100001000100010001 3
b10101010101010100001000100010001 :
b10101010101010100001000100010001 >
b10101010101010100001000100010001 G
0(
1'
#1800000
b100 #
b100 6
b100 ;
b100 B
1(
0'
1&
#1810000
b11011101110111010100010001000100 "
b11011101110111010100010001000100 7
b11011101110111010100010001000100 %
b11011101110111010100010001000100 3
b11011101110111010100010001000100 :
b11011101110111010100010001000100 >
b11011101110111010100010001000100 G
0=
0(
1'
#1820000
b1 #
b1 6
b1 ;
b1 B
1(
0'
0&
#1830000
1=
b10101010101010100001000100010001 "
b10101010101010100001000100010001 7
b10101010101010100001000100010001 %
b10101010101010100001000100010001 3
b10101010101010100001000100010001 :
b10101010101010100001000100010001 >
b10101010101010100001000100010001 G
0(
1'
#1840000
b100 #
b100 6
b100 ;
b100 B
1(
0'
1&
#1841000
b100001 1
b10 N
b10101010101010100001000100010001 M
b1 L
#1850000
b11011101110111010100010001000100 "
b11011101110111010100010001000100 7
b11011101110111010100010001000100 %
b11011101110111010100010001000100 3
b11011101110111010100010001000100 :
b11011101110111010100010001000100 >
b11011101110111010100010001000100 G
0=
0(
1'
