tb_shared_ram.vcd
$date
	Thu Mar 12 17:10:11 2026
$end
$version
	Icarus Verilog
$end
$timescale
	1ps
$end
$scope module tb_shared_ram $end
$var wire 1 ! ram_write_enable_dbg $end
$var wire 32 " ram_read_data_dbg [31:0] $end
$var wire 3 # ram_raddr_dbg [2:0] $end
$var wire 32 $ gpu_rdata_cached [31:0] $end
$var wire 32 % cpu_rdata_raw [31:0] $end
$var reg 1 & clk25 $end
$var reg 1 ' clk50 $end
$var reg 3 ( cpu_addr [2:0] $end
$var reg 32 ) cpu_wdata [31:0] $end
$var reg 1 * cpu_we $end
$var reg 3 + gpu_addr [2:0] $end
$var reg 1 , rst $end
$var integer 32 - cpu_req_time [31:0] $end
$var integer 32 . gpu_req_time [31:0] $end
$scope module dut $end
$var wire 1 & clk25 $end
$var wire 1 ' clk50 $end
$var wire 1 / clk50_n $end
$var wire 3 0 cpu_addr [2:0] $end
$var wire 32 1 cpu_rdata_raw [31:0] $end
$var wire 32 2 cpu_wdata [31:0] $end
$var wire 1 * cpu_we $end
$var wire 3 3 gpu_addr [2:0] $end
$var wire 3 4 ram_raddr_dbg [2:0] $end
$var wire 32 5 ram_read_data_dbg [31:0] $end
$var wire 1 6 ram_we $end
$var wire 1 ! ram_write_enable_dbg $end
$var wire 1 7 reg_clk $end
$var wire 1 , rst $end
$var wire 1 8 same_phase $end
$var wire 32 9 ram_rdata [31:0] $end
$var wire 3 : ram_raddr [2:0] $end
$var wire 32 ; gpu_rdata_cached [31:0] $end
$var reg 1 < en_gpu $end
$scope module gpu_cache_u $end
$var wire 1 7 clk $end
$var wire 1 < en $end
$var wire 1 , rst $end
$var wire 32 = d [31:0] $end
$var parameter 32 > RESET_VALUE $end
$var parameter 32 ? W $end
$var reg 32 @ q [31:0] $end
$upscope $end
$scope module ram_u $end
$var wire 3 A raddr [2:0] $end
$var wire 1 ' rclk $end
$var wire 3 B waddr [2:0] $end
$var wire 1 ' wclk $end
$var wire 32 C write_data [31:0] $end
$var wire 1 6 write_enable $end
$var parameter 32 D ENTRIES $end
$var parameter 32 E WIDTH $end
$var reg 32 F read_data [31:0] $end
$upscope $end
$upscope $end
$scope task cpu_idle $end
$upscope $end
$scope task cpu_read $end
$var reg 3 G addr [2:0] $end
$upscope $end
$scope task cpu_write $end
$var reg 3 H addr [2:0] $end
$var reg 32 I data [31:0] $end
$upscope $end
$scope task gpu_read $end
$var reg 3 J addr [2:0] $end
$upscope $end
$upscope $end
$enddefinitions $end
$comment Show the parameter values. $end
$dumpall
b100000 E
b1000 D
b100000 ?
b0 >
$end
#0
$dumpvars
bx J
bx I
bx H
bx G
bx F
b0 C
b0 B
b0 A
b0 @
bx =
x<
b0 ;
b0 :
bx 9
08
17
06
bx 5
b0 4
b0 3
b0 2
bx 1
b0 0
1/
b0 .
b0 -
1,
b0 +
0*
b0 )
b0 (
0'
0&
bx %
b0 $
b0 #
bx "
0!
$end
#5000
0,
#10000
1<
07
0/
1'
#20000
bx $
bx ;
bx @
17
1/
0'
#30000
07
0/
1'
#40000
17
1/
0'
1&
#50000
0<
07
0/
1'
#60000
17
1/
0'
0&
#70000
1<
07
0/
1'
#80000
b1 #
b1 4
b1 :
b1 A
17
1/
1!
16
1*
b10101010101010100001000100010001 )
b10101010101010100001000100010001 2
b10101010101010100001000100010001 C
b1 (
b1 0
b1 B
b10101010101010100001000100010001 I
b1 H
0'
1&
#90000
0<
07
0/
1'
#100000
b0 #
b0 4
b0 :
b0 A
17
1/
0!
06
0*
0'
0&
#110000
1<
07
0/
1'
#120000
b10 #
b10 4
b10 :
b10 A
17
1/
1!
16
1*
b10111011101110110010001000100010 )
b10111011101110110010001000100010 2
b10111011101110110010001000100010 C
b10 (
b10 0
b10 B
b10111011101110110010001000100010 I
b10 H
0'
1&
#130000
0<
07
0/
1'
#140000
b0 #
b0 4
b0 :
b0 A
17
1/
0!
06
0*
0'
0&
#150000
1<
07
0/
1'
#160000
b11 #
b11 4
b11 :
b11 A
17
1/
1!
16
1*
b11001100110011000011001100110011 )
b11001100110011000011001100110011 2
b11001100110011000011001100110011 C
b11 (
b11 0
b11 B
b11001100110011000011001100110011 I
b11 H
0'
1&
#170000
0<
07
0/
1'
#180000
b0 #
b0 4
b0 :
b0 A
17
1/
0!
06
0*
0'
0&
#190000
1<
07
0/
1'
#200000
b100 #
b100 4
b100 :
b100 A
17
1/
1!
16
1*
b11011101110111010100010001000100 )
b11011101110111010100010001000100 2
b11011101110111010100010001000100 C
b100 (
b100 0
b100 B
b11011101110111010100010001000100 I
b100 H
0'
1&
#210000
0<
07
0/
1'
#220000
b0 #
b0 4
b0 :
b0 A
17
1/
0!
06
0*
0'
0&
#230000
1<
07
0/
1'
#240000
b100 #
b100 4
b100 :
b100 A
17
1/
0'
1&
#250000
b11011101110111010100010001000100 "
b11011101110111010100010001000100 5
b11011101110111010100010001000100 %
b11011101110111010100010001000100 1
b11011101110111010100010001000100 9
b11011101110111010100010001000100 =
b11011101110111010100010001000100 F
0<
07
0/
1'
#260000
b1 #
b1 4
b1 :
b1 A
17
1/
b100000100 .
b1 +
b1 3
b1 J
0'
0&
#270000
1<
b10101010101010100001000100010001 "
b10101010101010100001000100010001 5
b10101010101010100001000100010001 %
b10101010101010100001000100010001 1
b10101010101010100001000100010001 9
b10101010101010100001000100010001 =
b10101010101010100001000100010001 F
07
0/
1'
#280000
b10101010101010100001000100010001 $
b10101010101010100001000100010001 ;
b10101010101010100001000100010001 @
b100 #
b100 4
b100 :
b100 A
17
1/
0'
1&
#290000
b11011101110111010100010001000100 "
b11011101110111010100010001000100 5
b11011101110111010100010001000100 %
b11011101110111010100010001000100 1
b11011101110111010100010001000100 9
b11011101110111010100010001000100 =
b11011101110111010100010001000100 F
0<
07
0/
1'
#300000
b10 #
b10 4
b10 :
b10 A
17
1/
b100101100 .
b10 +
b10 3
b10 J
0'
0&
#310000
1<
b10111011101110110010001000100010 "
b10111011101110110010001000100010 5
b10111011101110110010001000100010 %
b10111011101110110010001000100010 1
b10111011101110110010001000100010 9
b10111011101110110010001000100010 =
b10111011101110110010001000100010 F
07
0/
1'
#320000
b10111011101110110010001000100010 $
b10111011101110110010001000100010 ;
b10111011101110110010001000100010 @
b100 #
b100 4
b100 :
b100 A
17
1/
0'
1&
#330000
b11011101110111010100010001000100 "
b11011101110111010100010001000100 5
b11011101110111010100010001000100 %
b11011101110111010100010001000100 1
b11011101110111010100010001000100 9
b11011101110111010100010001000100 =
b11011101110111010100010001000100 F
0<
07
0/
1'
#340000
b11 #
b11 4
b11 :
b11 A
17
1/
b101010100 .
b11 +
b11 3
b11 J
0'
0&
#350000
1<
b11001100110011000011001100110011 "
b11001100110011000011001100110011 5
b11001100110011000011001100110011 %
b11001100110011000011001100110011 1
b11001100110011000011001100110011 9
b11001100110011000011001100110011 =
b11001100110011000011001100110011 F
07
0/
1'
#360000
b11001100110011000011001100110011 $
b11001100110011000011001100110011 ;
b11001100110011000011001100110011 @
b100 #
b100 4
b100 :
b100 A
17
1/
0'
1&
#370000
b11011101110111010100010001000100 "
b11011101110111010100010001000100 5
b11011101110111010100010001000100 %
b11011101110111010100010001000100 1
b11011101110111010100010001000100 9
b11011101110111010100010001000100 =
b11011101110111010100010001000100 F
0<
07
0/
1'
#380000
17
1/
b101111100 .
b100 +
b100 3
b100 J
0'
0&
#390000
1<
07
0/
1'
#400000
b11011101110111010100010001000100 $
b11011101110111010100010001000100 ;
b11011101110111010100010001000100 @
17
1/
0'
1&
#410000
0<
07
0/
1'
#420000
17
1/
0'
0&
#430000
1<
07
0/
1'
#440000
b11 #
b11 4
b11 :
b11 A
17
1/
1!
16
1*
b11011110101011011011111011101111 )
b11011110101011011011111011101111 2
b11011110101011011011111011101111 C
b11 (
b11 0
b11 B
b11011110101011011011111011101111 I
b11 H
0'
1&
#450000
b11001100110011000011001100110011 "
b11001100110011000011001100110011 5
b11001100110011000011001100110011 %
b11001100110011000011001100110011 1
b11001100110011000011001100110011 9
b11001100110011000011001100110011 =
b11001100110011000011001100110011 F
0<
07
0/
1'
#460000
17
1/
b111001100 .
b11 +
b11 3
b11 J
0!
06
0*
0'
0&
#470000
1<
b11011110101011011011111011101111 "
b11011110101011011011111011101111 5
b11011110101011011011111011101111 %
b11011110101011011011111011101111 1
b11011110101011011011111011101111 9
b11011110101011011011111011101111 =
b11011110101011011011111011101111 F
07
0/
1'
#480000
b11011110101011011011111011101111 $
b11011110101011011011111011101111 ;
b11011110101011011011111011101111 @
17
1/
0'
1&
#490000
0<
07
0/
1'
#500000
17
1/
0'
0&
#510000
1<
07
0/
1'
#520000
b101 #
b101 4
b101 :
b101 A
17
1/
1!
16
1*
b11111110111011010101010101010101 )
b11111110111011010101010101010101 2
b11111110111011010101010101010101 C
b101 (
b101 0
b101 B
b11111110111011010101010101010101 I
b101 H
0'
1&
#530000
bx "
bx 5
bx %
bx 1
bx 9
bx =
bx F
0<
07
0/
1'
#540000
17
1/
b1000011100 .
b101 +
b101 3
b101 J
0!
06
0*
0'
0&
#550000
1<
b11111110111011010101010101010101 "
b11111110111011010101010101010101 5
b11111110111011010101010101010101 %
b11111110111011010101010101010101 1
b11111110111011010101010101010101 9
b11111110111011010101010101010101 =
b11111110111011010101010101010101 F
07
0/
1'
#560000
b11111110111011010101010101010101 $
b11111110111011010101010101010101 ;
b11111110111011010101010101010101 @
17
1/
0'
1&
#570000
0<
07
0/
1'
#580000
17
1/
0'
0&
#590000
1<
07
0/
1'
#600000
b110 #
b110 4
b110 :
b110 A
17
1/
1!
16
1*
b1100110011001100000000000000000 )
b1100110011001100000000000000000 2
b1100110011001100000000000000000 C
b110 (
b110 0
b110 B
b1100110011001100000000000000000 I
b110 H
0'
1&
#610000
bx "
bx 5
bx %
bx 1
bx 9
bx =
bx F
0<
07
0/
1'
#620000
b101 #
b101 4
b101 :
b101 A
17
1/
b1001101100 .
0!
06
0*
0'
0&
#630000
1<
b11111110111011010101010101010101 "
b11111110111011010101010101010101 5
b11111110111011010101010101010101 %
b11111110111011010101010101010101 1
b11111110111011010101010101010101 9
b11111110111011010101010101010101 =
b11111110111011010101010101010101 F
07
0/
1'
#640000
b110 #
b110 4
b110 :
b110 A
17
1/
0'
1&
#650000
b1100110011001100000000000000000 "
b1100110011001100000000000000000 5
b1100110011001100000000000000000 %
b1100110011001100000000000000000 1
b1100110011001100000000000000000 9
b1100110011001100000000000000000 =
b1100110011001100000000000000000 F
0<
07
0/
1'
#660000
b101 #
b101 4
b101 :
b101 A
17
1/
0'
0&
#670000
1<
b11111110111011010101010101010101 "
b11111110111011010101010101010101 5
b11111110111011010101010101010101 %
b11111110111011010101010101010101 1
b11111110111011010101010101010101 9
b11111110111011010101010101010101 =
b11111110111011010101010101010101 F
07
0/
1'
#680000
b111 #
b111 4
b111 :
b111 A
17
1/
1!
16
1*
b1110111011101110111011101110111 )
b1110111011101110111011101110111 2
b1110111011101110111011101110111 C
b111 (
b111 0
b111 B
b1110111011101110111011101110111 I
b111 H
0'
1&
#690000
bx "
bx 5
bx %
bx 1
bx 9
bx =
bx F
0<
07
0/
1'
#700000
b10 #
b10 4
b10 :
b10 A
17
1/
b1010111100 .
b10 +
b10 3
b10 J
0!
06
0*
0'
0&
#710000
1<
b10111011101110110010001000100010 "
b10111011101110110010001000100010 5
b10111011101110110010001000100010 %
b10111011101110110010001000100010 1
b10111011101110110010001000100010 9
b10111011101110110010001000100010 =
b10111011101110110010001000100010 F
07
0/
1'
#720000
b10111011101110110010001000100010 $
b10111011101110110010001000100010 ;
b10111011101110110010001000100010 @
b111 #
b111 4
b111 :
b111 A
17
1/
0'
1&
#730000
b1110111011101110111011101110111 "
b1110111011101110111011101110111 5
b1110111011101110111011101110111 %
b1110111011101110111011101110111 1
b1110111011101110111011101110111 9
b1110111011101110111011101110111 =
b1110111011101110111011101110111 F
0<
07
0/
1'
#740000
b10 #
b10 4
b10 :
b10 A
17
1/
0'
0&
#750000
1<
b10111011101110110010001000100010 "
b10111011101110110010001000100010 5
b10111011101110110010001000100010 %
b10111011101110110010001000100010 1
b10111011101110110010001000100010 9
b10111011101110110010001000100010 =
b10111011101110110010001000100010 F
07
0/
1'
#760000
b111 #
b111 4
b111 :
b111 A
17
1/
0'
1&
#770000
b1110111011101110111011101110111 "
b1110111011101110111011101110111 5
b1110111011101110111011101110111 %
b1110111011101110111011101110111 1
b1110111011101110111011101110111 9
b1110111011101110111011101110111 =
b1110111011101110111011101110111 F
0<
07
0/
1'
#780000
17
1/
b1100001100 .
b111 +
b111 3
b111 J
0'
0&
#790000
1<
07
0/
1'
#800000
b1110111011101110111011101110111 $
b1110111011101110111011101110111 ;
b1110111011101110111011101110111 @
17
1/
0'
1&
#810000
0<
07
0/
1'
#820000
17
1/
0'
0&
#830000
1<
07
0/
1'
#840000
b1 #
b1 4
b1 :
b1 A
17
1/
b1101001000 -
b1 (
b1 0
b1 B
b1 G
0'
1&
#850000
b10101010101010100001000100010001 "
b10101010101010100001000100010001 5
b10101010101010100001000100010001 %
b10101010101010100001000100010001 1
b10101010101010100001000100010001 9
b10101010101010100001000100010001 =
b10101010101010100001000100010001 F
0<
07
0/
1'
#860000
17
1/
b1101011100 .
b1 +
b1 3
b1 J
0'
0&
#870000
1<
07
0/
1'
#880000
b10101010101010100001000100010001 $
b10101010101010100001000100010001 ;
b10101010101010100001000100010001 @
17
1/
0'
1&
#890000
0<
07
0/
1'
#900000
17
1/
0'
0&
#910000
1<
07
0/
1'
#920000
b11 #
b11 4
b11 :
b11 A
17
1/
b1110011000 -
b11 (
b11 0
b11 B
b11 G
0'
1&
#930000
b11011110101011011011111011101111 "
b11011110101011011011111011101111 5
b11011110101011011011111011101111 %
b11011110101011011011111011101111 1
b11011110101011011011111011101111 9
b11011110101011011011111011101111 =
b11011110101011011011111011101111 F
0<
07
0/
1'
#940000
17
1/
b1110101100 .
b11 +
b11 3
b11 J
0'
0&
#950000
1<
07
0/
1'
#960000
b11011110101011011011111011101111 $
b11011110101011011011111011101111 ;
b11011110101011011011111011101111 @
17
1/
0'
1&
#970000
0<
07
0/
1'
#980000
17
1/
0'
0&
#990000
1<
07
0/
1'
#1000000
b110 #
b110 4
b110 :
b110 A
17
1/
b1111101000 -
b110 (
b110 0
b110 B
b110 G
0'
1&
#1010000
b1100110011001100000000000000000 "
b1100110011001100000000000000000 5
b1100110011001100000000000000000 %
b1100110011001100000000000000000 1
b1100110011001100000000000000000 9
b1100110011001100000000000000000 =
b1100110011001100000000000000000 F
0<
07
0/
1'
#1020000
17
1/
b1111111100 .
b110 +
b110 3
b110 J
0'
0&
#1030000
1<
07
0/
1'
#1040000
b1100110011001100000000000000000 $
b1100110011001100000000000000000 ;
b1100110011001100000000000000000 @
17
1/
0'
1&
#1050000
0<
07
0/
1'
#1060000
17
1/
0'
0&
#1070000
1<
07
0/
1'
#1080000
b111 #
b111 4
b111 :
b111 A
17
1/
b10000111000 -
b111 (
b111 0
b111 B
b111 G
0'
1&
#1090000
b1110111011101110111011101110111 "
b1110111011101110111011101110111 5
b1110111011101110111011101110111 %
b1110111011101110111011101110111 1
b1110111011101110111011101110111 9
b1110111011101110111011101110111 =
b1110111011101110111011101110111 F
0<
07
0/
1'
#1100000
17
1/
b10001001100 .
b111 +
b111 3
b111 J
0'
0&
#1110000
1<
07
0/
1'
#1120000
b1110111011101110111011101110111 $
b1110111011101110111011101110111 ;
b1110111011101110111011101110111 @
17
1/
0'
1&
#1130000
0<
07
0/
1'
#1140000
17
1/
0'
0&
#1150000
1<
07
0/
1'
#1160000
b1 #
b1 4
b1 :
b1 A
17
1/
b10010001000 -
b1 (
b1 0
b1 B
b1 G
0'
1&
#1170000
b10101010101010100001000100010001 "
b10101010101010100001000100010001 5
b10101010101010100001000100010001 %
b10101010101010100001000100010001 1
b10101010101010100001000100010001 9
b10101010101010100001000100010001 =
b10101010101010100001000100010001 F
0<
07
0/
1'
#1180000
b100 #
b100 4
b100 :
b100 A
17
1/
b10010011100 .
b100 +
b100 3
b100 J
0'
0&
#1190000
1<
b11011101110111010100010001000100 "
b11011101110111010100010001000100 5
b11011101110111010100010001000100 %
b11011101110111010100010001000100 1
b11011101110111010100010001000100 9
b11011101110111010100010001000100 =
b11011101110111010100010001000100 F
07
0/
1'
#1200000
b11011101110111010100010001000100 $
b11011101110111010100010001000100 ;
b11011101110111010100010001000100 @
b1 #
b1 4
b1 :
b1 A
17
1/
0'
1&
#1210000
b10101010101010100001000100010001 "
b10101010101010100001000100010001 5
b10101010101010100001000100010001 %
b10101010101010100001000100010001 1
b10101010101010100001000100010001 9
b10101010101010100001000100010001 =
b10101010101010100001000100010001 F
0<
07
0/
1'
#1220000
b100 #
b100 4
b100 :
b100 A
17
1/
0'
0&
#1230000
1<
b11011101110111010100010001000100 "
b11011101110111010100010001000100 5
b11011101110111010100010001000100 %
b11011101110111010100010001000100 1
b11011101110111010100010001000100 9
b11011101110111010100010001000100 =
b11011101110111010100010001000100 F
07
0/
1'
#1240000
b10 #
b10 4
b10 :
b10 A
17
1/
b10011011000 -
b10 (
b10 0
b10 B
b10 G
0'
1&
#1250000
b10111011101110110010001000100010 "
b10111011101110110010001000100010 5
b10111011101110110010001000100010 %
b10111011101110110010001000100010 1
b10111011101110110010001000100010 9
b10111011101110110010001000100010 =
b10111011101110110010001000100010 F
0<
07
0/
1'
#1260000
b111 #
b111 4
b111 :
b111 A
17
1/
b10011101100 .
b111 +
b111 3
b111 J
0'
0&
#1270000
1<
b1110111011101110111011101110111 "
b1110111011101110111011101110111 5
b1110111011101110111011101110111 %
b1110111011101110111011101110111 1
b1110111011101110111011101110111 9
b1110111011101110111011101110111 =
b1110111011101110111011101110111 F
07
0/
1'
#1280000
b1110111011101110111011101110111 $
b1110111011101110111011101110111 ;
b1110111011101110111011101110111 @
b10 #
b10 4
b10 :
b10 A
17
1/
0'
1&
#1290000
b10111011101110110010001000100010 "
b10111011101110110010001000100010 5
b10111011101110110010001000100010 %
b10111011101110110010001000100010 1
b10111011101110110010001000100010 9
b10111011101110110010001000100010 =
b10111011101110110010001000100010 F
0<
07
0/
1'
#1300000
b111 #
b111 4
b111 :
b111 A
17
1/
0'
0&
#1310000
1<
b1110111011101110111011101110111 "
b1110111011101110111011101110111 5
b1110111011101110111011101110111 %
b1110111011101110111011101110111 1
b1110111011101110111011101110111 9
b1110111011101110111011101110111 =
b1110111011101110111011101110111 F
07
0/
1'
#1320000
b101 #
b101 4
b101 :
b101 A
17
1/
b10100101000 -
b101 (
b101 0
b101 B
b101 G
0'
1&
#1330000
b11111110111011010101010101010101 "
b11111110111011010101010101010101 5
b11111110111011010101010101010101 %
b11111110111011010101010101010101 1
b11111110111011010101010101010101 9
b11111110111011010101010101010101 =
b11111110111011010101010101010101 F
0<
07
0/
1'
#1340000
b11 #
b11 4
b11 :
b11 A
17
1/
b10100111100 .
b11 +
b11 3
b11 J
0'
0&
#1350000
1<
b11011110101011011011111011101111 "
b11011110101011011011111011101111 5
b11011110101011011011111011101111 %
b11011110101011011011111011101111 1
b11011110101011011011111011101111 9
b11011110101011011011111011101111 =
b11011110101011011011111011101111 F
07
0/
1'
#1360000
b11011110101011011011111011101111 $
b11011110101011011011111011101111 ;
b11011110101011011011111011101111 @
b101 #
b101 4
b101 :
b101 A
17
1/
0'
1&
#1370000
b11111110111011010101010101010101 "
b11111110111011010101010101010101 5
b11111110111011010101010101010101 %
b11111110111011010101010101010101 1
b11111110111011010101010101010101 9
b11111110111011010101010101010101 =
b11111110111011010101010101010101 F
0<
07
0/
1'
#1380000
b11 #
b11 4
b11 :
b11 A
17
1/
0'
0&
#1390000
1<
b11011110101011011011111011101111 "
b11011110101011011011111011101111 5
b11011110101011011011111011101111 %
b11011110101011011011111011101111 1
b11011110101011011011111011101111 9
b11011110101011011011111011101111 =
b11011110101011011011111011101111 F
07
0/
1'
#1400000
b110 #
b110 4
b110 :
b110 A
17
1/
b10101111000 -
b110 (
b110 0
b110 B
b110 G
0'
1&
#1410000
b1100110011001100000000000000000 "
b1100110011001100000000000000000 5
b1100110011001100000000000000000 %
b1100110011001100000000000000000 1
b1100110011001100000000000000000 9
b1100110011001100000000000000000 =
b1100110011001100000000000000000 F
0<
07
0/
1'
#1420000
b1 #
b1 4
b1 :
b1 A
17
1/
b10110001100 .
b1 +
b1 3
b1 J
0'
0&
#1430000
1<
b10101010101010100001000100010001 "
b10101010101010100001000100010001 5
b10101010101010100001000100010001 %
b10101010101010100001000100010001 1
b10101010101010100001000100010001 9
b10101010101010100001000100010001 =
b10101010101010100001000100010001 F
07
0/
1'
#1440000
b10101010101010100001000100010001 $
b10101010101010100001000100010001 ;
b10101010101010100001000100010001 @
b110 #
b110 4
b110 :
b110 A
17
1/
0'
1&
#1450000
b1100110011001100000000000000000 "
b1100110011001100000000000000000 5
b1100110011001100000000000000000 %
b1100110011001100000000000000000 1
b1100110011001100000000000000000 9
b1100110011001100000000000000000 =
b1100110011001100000000000000000 F
0<
07
0/
1'
#1460000
b1 #
b1 4
b1 :
b1 A
17
1/
0'
0&
#1470000
1<
b10101010101010100001000100010001 "
b10101010101010100001000100010001 5
b10101010101010100001000100010001 %
b10101010101010100001000100010001 1
b10101010101010100001000100010001 9
b10101010101010100001000100010001 =
b10101010101010100001000100010001 F
07
0/
1'
#1480000
b111 #
b111 4
b111 :
b111 A
17
1/
b10111001000 -
b111 (
b111 0
b111 B
b111 G
0'
1&
#1490000
b1110111011101110111011101110111 "
b1110111011101110111011101110111 5
b1110111011101110111011101110111 %
b1110111011101110111011101110111 1
b1110111011101110111011101110111 9
b1110111011101110111011101110111 =
b1110111011101110111011101110111 F
0<
07
0/
1'
#1500000
b110 #
b110 4
b110 :
b110 A
17
1/
b10111011100 .
b110 +
b110 3
b110 J
0'
0&
#1510000
1<
b1100110011001100000000000000000 "
b1100110011001100000000000000000 5
b1100110011001100000000000000000 %
b1100110011001100000000000000000 1
b1100110011001100000000000000000 9
b1100110011001100000000000000000 =
b1100110011001100000000000000000 F
07
0/
1'
#1520000
b1100110011001100000000000000000 $
b1100110011001100000000000000000 ;
b1100110011001100000000000000000 @
b111 #
b111 4
b111 :
b111 A
17
1/
0'
1&
#1530000
b1110111011101110111011101110111 "
b1110111011101110111011101110111 5
b1110111011101110111011101110111 %
b1110111011101110111011101110111 1
b1110111011101110111011101110111 9
b1110111011101110111011101110111 =
b1110111011101110111011101110111 F
0<
07
0/
1'
#1540000
b110 #
b110 4
b110 :
b110 A
17
1/
0'
0&
#1550000
1<
b1100110011001100000000000000000 "
b1100110011001100000000000000000 5
b1100110011001100000000000000000 %
b1100110011001100000000000000000 1
b1100110011001100000000000000000 9
b1100110011001100000000000000000 =
b1100110011001100000000000000000 F
07
0/
1'
#1560000
b11 #
b11 4
b11 :
b11 A
17
1/
b11000011000 -
b11 (
b11 0
b11 B
b11 G
0'
1&
#1570000
b11011110101011011011111011101111 "
b11011110101011011011111011101111 5
b11011110101011011011111011101111 %
b11011110101011011011111011101111 1
b11011110101011011011111011101111 9
b11011110101011011011111011101111 =
b11011110101011011011111011101111 F
0<
07
0/
1'
#1580000
b101 #
b101 4
b101 :
b101 A
17
1/
b11000101100 .
b101 +
b101 3
b101 J
0'
0&
#1590000
1<
b11111110111011010101010101010101 "
b11111110111011010101010101010101 5
b11111110111011010101010101010101 %
b11111110111011010101010101010101 1
b11111110111011010101010101010101 9
b11111110111011010101010101010101 =
b11111110111011010101010101010101 F
07
0/
1'
#1600000
b11111110111011010101010101010101 $
b11111110111011010101010101010101 ;
b11111110111011010101010101010101 @
b11 #
b11 4
b11 :
b11 A
17
1/
0'
1&
#1610000
b11011110101011011011111011101111 "
b11011110101011011011111011101111 5
b11011110101011011011111011101111 %
b11011110101011011011111011101111 1
b11011110101011011011111011101111 9
b11011110101011011011111011101111 =
b11011110101011011011111011101111 F
0<
07
0/
1'
#1620000
b101 #
b101 4
b101 :
b101 A
17
1/
0'
0&
#1630000
1<
b11111110111011010101010101010101 "
b11111110111011010101010101010101 5
b11111110111011010101010101010101 %
b11111110111011010101010101010101 1
b11111110111011010101010101010101 9
b11111110111011010101010101010101 =
b11111110111011010101010101010101 F
07
0/
1'
#1640000
b100 #
b100 4
b100 :
b100 A
17
1/
b11001101000 -
b100 (
b100 0
b100 B
b100 G
0'
1&
#1650000
b11011101110111010100010001000100 "
b11011101110111010100010001000100 5
b11011101110111010100010001000100 %
b11011101110111010100010001000100 1
b11011101110111010100010001000100 9
b11011101110111010100010001000100 =
b11011101110111010100010001000100 F
0<
07
0/
1'
#1660000
b10 #
b10 4
b10 :
b10 A
17
1/
b11001111100 .
b10 +
b10 3
b10 J
0'
0&
#1670000
1<
b10111011101110110010001000100010 "
b10111011101110110010001000100010 5
b10111011101110110010001000100010 %
b10111011101110110010001000100010 1
b10111011101110110010001000100010 9
b10111011101110110010001000100010 =
b10111011101110110010001000100010 F
07
0/
1'
#1680000
b10111011101110110010001000100010 $
b10111011101110110010001000100010 ;
b10111011101110110010001000100010 @
b100 #
b100 4
b100 :
b100 A
17
1/
0'
1&
#1690000
b11011101110111010100010001000100 "
b11011101110111010100010001000100 5
b11011101110111010100010001000100 %
b11011101110111010100010001000100 1
b11011101110111010100010001000100 9
b11011101110111010100010001000100 =
b11011101110111010100010001000100 F
0<
07
0/
1'
#1700000
b10 #
b10 4
b10 :
b10 A
17
1/
0'
0&
#1710000
1<
b10111011101110110010001000100010 "
b10111011101110110010001000100010 5
b10111011101110110010001000100010 %
b10111011101110110010001000100010 1
b10111011101110110010001000100010 9
b10111011101110110010001000100010 =
b10111011101110110010001000100010 F
07
0/
1'
#1720000
b100 #
b100 4
b100 :
b100 A
17
1/
0'
1&
#1730000
b11011101110111010100010001000100 "
b11011101110111010100010001000100 5
b11011101110111010100010001000100 %
b11011101110111010100010001000100 1
b11011101110111010100010001000100 9
b11011101110111010100010001000100 =
b11011101110111010100010001000100 F
0<
07
0/
1'
#1740000
b1 #
b1 4
b1 :
b1 A
17
1/
b11011001100 .
b1 +
b1 3
b1 J
0'
0&
#1750000
1<
b10101010101010100001000100010001 "
b10101010101010100001000100010001 5
b10101010101010100001000100010001 %
b10101010101010100001000100010001 1
b10101010101010100001000100010001 9
b10101010101010100001000100010001 =
b10101010101010100001000100010001 F
07
0/
1'
#1760000
b10101010101010100001000100010001 $
b10101010101010100001000100010001 ;
b10101010101010100001000100010001 @
b100 #
b100 4
b100 :
b100 A
17
1/
0'
1&
#1770000
b11011101110111010100010001000100 "
b11011101110111010100010001000100 5
b11011101110111010100010001000100 %
b11011101110111010100010001000100 1
b11011101110111010100010001000100 9
b11011101110111010100010001000100 =
b11011101110111010100010001000100 F
0<
07
0/
1'
#1780000
b1 #
b1 4
b1 :
b1 A
17
1/
0'
0&
#1790000
1<
b10101010101010100001000100010001 "
b10101010101010100001000100010001 5
b10101010101010100001000100010001 %
b10101010101010100001000100010001 1
b10101010101010100001000100010001 9
b10101010101010100001000100010001 =
b10101010101010100001000100010001 F
07
0/
1'
#1800000
b100 #
b100 4
b100 :
b100 A
17
1/
0'
1&
#1810000
b11011101110111010100010001000100 "
b11011101110111010100010001000100 5
b11011101110111010100010001000100 %
b11011101110111010100010001000100 1
b11011101110111010100010001000100 9
b11011101110111010100010001000100 =
b11011101110111010100010001000100 F
0<
07
0/
1'
#1820000
b1 #
b1 4
b1 :
b1 A
17
1/
0'
0&
#1830000
1<
b10101010101010100001000100010001 "
b10101010101010100001000100010001 5
b10101010101010100001000100010001 %
b10101010101010100001000100010001 1
b10101010101010100001000100010001 9
b10101010101010100001000100010001 =
b10101010101010100001000100010001 F
07
0/
1'
#1840000
b100 #
b100 4
b100 :
b100 A
17
1/
0'
1&
#1850000
b11011101110111010100010001000100 "
b11011101110111010100010001000100 5
b11011101110111010100010001000100 %
b11011101110111010100010001000100 1
b11011101110111010100010001000100 9
b11011101110111010100010001000100 =
b11011101110111010100010001000100 F
0<
07
0/
1'
#1860000
b1 #
b1 4
b1 :
b1 A
17
1/
0'
0&
#1870000
1<
b10101010101010100001000100010001 "
b10101010101010100001000100010001 5
b10101010101010100001000100010001 %
b10101010101010100001000100010001 1
b10101010101010100001000100010001 9
b10101010101010100001000100010001 =
b10101010101010100001000100010001 F
07
0/
1'
#1880000
b100 #
b100 4
b100 :
b100 A
17
1/
0'
1&
#1890000
b11011101110111010100010001000100 "
b11011101110111010100010001000100 5
b11011101110111010100010001000100 %
b11011101110111010100010001000100 1
b11011101110111010100010001000100 9
b11011101110111010100010001000100 =
b11011101110111010100010001000100 F
0<
07
0/
1'
#1900000
b1 #
b1 4
b1 :
b1 A
17
1/
0'
0&
#1910000
1<
b10101010101010100001000100010001 "
b10101010101010100001000100010001 5
b10101010101010100001000100010001 %
b10101010101010100001000100010001 1
b10101010101010100001000100010001 9
b10101010101010100001000100010001 =
b10101010101010100001000100010001 F
07
0/
1'
#1920000
b100 #
b100 4
b100 :
b100 A
17
1/
0'
1&
#1930000
b11011101110111010100010001000100 "
b11011101110111010100010001000100 5
b11011101110111010100010001000100 %
b11011101110111010100010001000100 1
b11011101110111010100010001000100 9
b11011101110111010100010001000100 =
b11011101110111010100010001000100 F
0<
07
0/
1'
#1940000
b1 #
b1 4
b1 :
b1 A
17
1/
0'
0&
#1950000
1<
b10101010101010100001000100010001 "
b10101010101010100001000100010001 5
b10101010101010100001000100010001 %
b10101010101010100001000100010001 1
b10101010101010100001000100010001 9
b10101010101010100001000100010001 =
b10101010101010100001000100010001 F
07
0/
1'
#1960000
b100 #
b100 4
b100 :
b100 A
17
1/
0'
1&
